Cross referencing Transects and GPP
…
CV_df %>%
  left_join(MEAN_df)%>%
  select(RTENO, CV_gpp,MEAN_gpp) #%>%

## # A tibble: 3,224 x 3
##    RTENO CV_gpp MEAN_gpp
##    <dbl>  <dbl>    <dbl>
##  1 14001 0.0816     263.
##  2 14004 0.0516     418.
##  3 14005 0.0465     450.
##  4 14006 0.0583     376.
##  5 14014 0.0424     496.
##  6 14074 0.0576     390.
##  7 14075 0.0475     454.
##  8 14081 0.0412     525.
##  9 14160 0.0624     294.
## 10 14164 0.0956     242.
## #  with 3,214 more rows
…
